Made in Australia – Blog
…
Table 1

# A tibble: 129 × 6
      id product                        benefit relatedness export_value     rca
   <int> <chr>                            <dbl>       <dbl>        <dbl>   <dbl>
 1     1 Steam boilers                   0.0641      0.0639      234154. 0.150  
 2     2 Water gas generators            0.0263      0.0801       93863. 0.269  
 3     3 Steam turbines                  0.411       0.0534       26293. 0.0151 
 4     4 Spark-ignition reciprocating …  0.422       0.0573      564479. 0.0296 
 5     5 Compression-ignition internal…  0.403       0.0606      137228. 0.00718
 6     6 Parts suitable for use with s…  0.279       0.0563      649991. 0.0233 
 7     7 Hydraulic turbines, water whe…  0.118       0.0635       45149. 0.101  
 8     8 Gas turbines                    0.228       0.0689       90135. 0.00168
 9     9 Other engines and motors        0.295       0.0672     1061475. 0.0961 
10    10 Pumps for liquids               0.468       0.0552    10071408. 0.336  
# ℹ 119 more rows
…
